 Error Log File - c:\users\orav\desktop\jaks\hammasrattad\a_6r51m056030



 The Version is Pro/ENGINEER VERSION - 23



 FEATURE NUMBER		1

 DEFINE STATE	 non-geometry feature  

 FEATURE NAME	 UnknownDatumPlaneFeature

 FEATURE TYPE	 DatumPlane  

 CONVERSION STATUS	NA (It's not a geometric feature) 
 
 
 
 FEATURE NUMBER		2

 DEFINE STATE	 non-geometry feature  

 FEATURE NAME	 UnknownDatumPlaneFeature

 FEATURE TYPE	 DatumPlane  

 CONVERSION STATUS	NA (It's not a geometric feature) 
 
 
 
 FEATURE NUMBER		3

 DEFINE STATE	 non-geometry feature  

 FEATURE NAME	 UnknownDatumPlaneFeature

 FEATURE TYPE	 DatumPlane  

 CONVERSION STATUS	NA (It's not a geometric feature) 
 
 
 
 FEATURE NUMBER		4

 DEFINE STATE	 non-geometry feature  

 FEATURE NAME	 DefaultCoordSysFeature

 FEATURE TYPE	 CoordSys  

 CONVERSION STATUS	NA (It's not a geometric feature) 
 
 
 
 FEATURE NUMBER		5

 DEFINE STATE	 non-geometry feature  

 FEATURE NAME	 SketchPlaneFeature

 FEATURE TYPE	 DatumPlane  

 CONVERSION STATUS	NA (It's not a geometric feature) 
 
 
 
 FEATURE NUMBER		6

 DEFINE STATE	 non-geometry feature  

 FEATURE NAME	 DatumCurveFeature

 FEATURE TYPE	 DatumCurve  

 CONVERSION STATUS	NA (It's not a geometric feature) 
 
 
 
 FEATURE NUMBER		7

 DEFINE STATE	 non-geometry feature  

 FEATURE NAME	 SketchPlaneFeature

 FEATURE TYPE	 DatumPlane  

 CONVERSION STATUS	NA (It's not a geometric feature) 
 
 
 
 FEATURE NUMBER		8

 SOLIDWORKS FEATURE NAME		Boss-Extrude1

 DEFINE STATE	 fully defined feature   

 FEATURE NAME	 1SidedBlindExtrudedProtrusionFeature

 FEATURE TYPE	 Protrusion  - Extrude 

 CONVERSION STATUS	Converted Successfully 
 
 
 
 FEATURE NUMBER		9

 DEFINE STATE	 non-geometry feature  

 FEATURE NAME	 SketchPlaneFeature

 FEATURE TYPE	 DatumPlane  

 CONVERSION STATUS	NA (It's not a geometric feature) 
 
 
 
 FEATURE NUMBER		10

 SOLIDWORKS FEATURE NAME		Boss-Extrude2

 DEFINE STATE	 fully defined feature   

 FEATURE NAME	 OneSidedUptoSrfExtrudedProtrusionFeature

 FEATURE TYPE	 Protrusion  - Extrude 

 CONVERSION STATUS	Converted Successfully 
 
 
 
 FEATURE NUMBER		11

 DEFINE STATE	 non-geometry feature  

 FEATURE NAME	 SketchPlaneFeature

 FEATURE TYPE	 DatumPlane  

 CONVERSION STATUS	NA (It's not a geometric feature) 
 
 
 
 FEATURE NUMBER		12

 SOLIDWORKS FEATURE NAME		CirPattern1

 DEFINE STATE	 defined using wild card   

 FEATURE NAME	 UnknownExtrudedProtrusionFeature

 FEATURE TYPE	 Protrusion  - Extrude 

 CONVERSION STATUS	Converted Successfully 
 
 
 
 FEATURE NUMBER		13

 DEFINE STATE	 defined using wild card   

 FEATURE NAME	 UnknownExtrudedProtrusionFeature

 FEATURE TYPE	 Protrusion  - Extrude 

 CONVERSION STATUS	NA (It is member of a pattern) 
 
 
 
 FEATURE NUMBER		14

 DEFINE STATE	 defined using wild card   

 FEATURE NAME	 UnknownExtrudedProtrusionFeature

 FEATURE TYPE	 Protrusion  - Extrude 

 CONVERSION STATUS	NA (It is member of a pattern) 
 
 
 
 FEATURE NUMBER		15

 DEFINE STATE	 defined using wild card   

 FEATURE NAME	 UnknownExtrudedProtrusionFeature

 FEATURE TYPE	 Protrusion  - Extrude 

 CONVERSION STATUS	NA (It is member of a pattern) 
 
 
 
 FEATURE NUMBER		16

 DEFINE STATE	 defined using wild card   

 FEATURE NAME	 UnknownExtrudedProtrusionFeature

 FEATURE TYPE	 Protrusion  - Extrude 

 CONVERSION STATUS	NA (It is member of a pattern) 
 
 
 
 FEATURE NUMBER		17

 DEFINE STATE	 defined using wild card   

 FEATURE NAME	 UnknownExtrudedProtrusionFeature

 FEATURE TYPE	 Protrusion  - Extrude 

 CONVERSION STATUS	NA (It is member of a pattern) 
 
 
 
 FEATURE NUMBER		18

 DEFINE STATE	 defined using wild card   

 FEATURE NAME	 UnknownExtrudedProtrusionFeature

 FEATURE TYPE	 Protrusion  - Extrude 

 CONVERSION STATUS	NA (It is member of a pattern) 
 
 
 
 FEATURE NUMBER		19

 DEFINE STATE	 defined using wild card   

 FEATURE NAME	 UnknownExtrudedProtrusionFeature

 FEATURE TYPE	 Protrusion  - Extrude 

 CONVERSION STATUS	NA (It is member of a pattern) 
 
 
 
 FEATURE NUMBER		20

 DEFINE STATE	 defined using wild card   

 FEATURE NAME	 UnknownExtrudedProtrusionFeature

 FEATURE TYPE	 Protrusion  - Extrude 

 CONVERSION STATUS	NA (It is member of a pattern) 
 
 
 
 FEATURE NUMBER		21

 SOLIDWORKS FEATURE NAME		Fillet1

 DEFINE STATE	 fully defined feature   

 FEATURE NAME	 ConstantEdgeRoundFeature

 FEATURE TYPE	 Round  

 CONVERSION STATUS	Converted Successfully 
 
 
 
 FEATURE NUMBER		22

 SOLIDWORKS FEATURE NAME		Fillet2

 DEFINE STATE	 fully defined feature   

 FEATURE NAME	 ConstantEdgeRoundFeature

 FEATURE TYPE	 Round  

 CONVERSION STATUS	Converted Successfully 
 
 
 
 FEATURE NUMBER		23

 SOLIDWORKS FEATURE NAME		Fillet3

 DEFINE STATE	 fully defined feature   

 FEATURE NAME	 ConstantEdgeRoundFeature

 FEATURE TYPE	 Round  

 CONVERSION STATUS	Converted Successfully 
 
 
 
 FEATURE NUMBER		24

 SOLIDWORKS FEATURE NAME		Fillet4

 DEFINE STATE	 fully defined feature   

 FEATURE NAME	 ConstantEdgeRoundFeature

 FEATURE TYPE	 Round  

 CONVERSION STATUS	Converted Successfully 
 
 
 
 FEATURE NUMBER		25

 SOLIDWORKS FEATURE NAME		Fillet5

 DEFINE STATE	 fully defined feature   

 FEATURE NAME	 ConstantEdgeRoundFeature

 FEATURE TYPE	 Round  

 CONVERSION STATUS	Converted Successfully 
 
 
 
 FEATURE NUMBER		26

 SOLIDWORKS FEATURE NAME		Fillet6

 DEFINE STATE	 fully defined feature   

 FEATURE NAME	 ConstantEdgeRoundFeature

 FEATURE TYPE	 Round  

 CONVERSION STATUS	Converted Successfully 
 
 
 
 FEATURE NUMBER		27

 SOLIDWORKS FEATURE NAME		Fillet7

 DEFINE STATE	 fully defined feature   

 FEATURE NAME	 ConstantEdgeRoundFeature

 FEATURE TYPE	 Round  

 CONVERSION STATUS	Converted Successfully 
 
 
 
 FEATURE NUMBER		28

 SOLIDWORKS FEATURE NAME		Fillet8

 DEFINE STATE	 fully defined feature   

 FEATURE NAME	 ConstantEdgeRoundFeature

 FEATURE TYPE	 Round  

 CONVERSION STATUS	Converted Successfully 
 
 
 
 FEATURE NUMBER		29

 SOLIDWORKS FEATURE NAME		Fillet9

 DEFINE STATE	 fully defined feature   

 FEATURE NAME	 ConstantEdgeRoundFeature

 FEATURE TYPE	 Round  

 CONVERSION STATUS	Converted Successfully 
 
 
 
 FEATURE NUMBER		30

 SOLIDWORKS FEATURE NAME		Fillet10

 DEFINE STATE	 fully defined feature   

 FEATURE NAME	 ConstantEdgeRoundFeature

 FEATURE TYPE	 Round  

 CONVERSION STATUS	Converted Successfully 
 
 
 
 FEATURE NUMBER		31

 SOLIDWORKS FEATURE NAME		Fillet11

 DEFINE STATE	 fully defined feature   

 FEATURE NAME	 ConstantEdgeRoundFeature

 FEATURE TYPE	 Round  

 CONVERSION STATUS	Converted Successfully 
 
 
 
 FEATURE NUMBER		32

 SOLIDWORKS FEATURE NAME		Fillet12

 DEFINE STATE	 fully defined feature   

 FEATURE NAME	 ConstantEdgeRoundFeature

 FEATURE TYPE	 Round  

 CONVERSION STATUS	Converted Successfully 
 
 
 
 FEATURE NUMBER		33

 SOLIDWORKS FEATURE NAME		Fillet13

 DEFINE STATE	 fully defined feature   

 FEATURE NAME	 ConstantEdgeRoundFeature

 FEATURE TYPE	 Round  

 CONVERSION STATUS	Converted Successfully 
 
 
 
 FEATURE NUMBER		34

 SOLIDWORKS FEATURE NAME		Fillet14

 DEFINE STATE	 fully defined feature   

 FEATURE NAME	 ConstantEdgeRoundFeature

 FEATURE TYPE	 Round  

 CONVERSION STATUS	Converted Successfully 
 
 
 
 FEATURE NUMBER		35

 SOLIDWORKS FEATURE NAME		Fillet15

 DEFINE STATE	 fully defined feature   

 FEATURE NAME	 ConstantEdgeRoundFeature

 FEATURE TYPE	 Round  

 CONVERSION STATUS	Converted Successfully 
 
 
 
 FEATURE NUMBER		36

 SOLIDWORKS FEATURE NAME		Fillet16

 DEFINE STATE	 fully defined feature   

 FEATURE NAME	 ConstantEdgeRoundFeature

 FEATURE TYPE	 Round  

 CONVERSION STATUS	Converted Successfully 
 
 
 
 FEATURE NUMBER		37

 SOLIDWORKS FEATURE NAME		Fillet17

 DEFINE STATE	 fully defined feature   

 FEATURE NAME	 ConstantEdgeRoundFeature

 FEATURE TYPE	 Round  

 CONVERSION STATUS	Converted Successfully 
 
 
 
 FEATURE NUMBER		38

 SOLIDWORKS FEATURE NAME		Fillet18

 DEFINE STATE	 fully defined feature   

 FEATURE NAME	 ConstantEdgeRoundFeature

 FEATURE TYPE	 Round  

 CONVERSION STATUS	Converted Successfully 
 
 
 
 FEATURE NUMBER		39

 SOLIDWORKS FEATURE NAME		Fillet19

 DEFINE STATE	 fully defined feature   

 FEATURE NAME	 ConstantEdgeRoundFeature

 FEATURE TYPE	 Round  

 CONVERSION STATUS	Converted Successfully 
 
 
 
 FEATURE NUMBER		40

 SOLIDWORKS FEATURE NAME		Fillet20

 DEFINE STATE	 fully defined feature   

 FEATURE NAME	 ConstantEdgeRoundFeature

 FEATURE TYPE	 Round  

 CONVERSION STATUS	Converted Successfully 
 
 
 
 
 
 
 The final status is : 
 
 Geometric Features: 
 	  Fully defined :- 22
 	  Defined using wild cards :- 9
 	  [Problems in conversion:- 0]
 	  Undefined :- 0
 
 No. of non-geometric features :- 9